{
  "categories": {
    "href": "https://api.spotify.com/v1/browse/categories?offset=0&limit=20",
    "items": [
      {
        "href": "https://api.spotify.com/v1/browse/categories/toplists",
        "icons": [
          {
            "height": 275,
            "url": "https://t.scdn.co/media/derived/toplists_11160599e6a04ac5d6f2757f5511778f_0_0_275_275.jpg",
            "width": 275
          }
        ],
        "id": "toplists",
        "name": "Top Lists"
      },
      {
        "href": "https://api.spotify.com/v1/browse/categories/pop",
        "icons": [
          {
            "height": 274,
            "url": "https://t.scdn.co/media/derived/pop-274x274_447148649685019f5e2a03a39e78ba52_0_0_274_274.jpg",
            "width": 274
          }
        ],
        "id": "pop",
        "name": "Pop"
      },
      {
        "href": "https://api.spotify.com/v1/browse/categories/hiphop",
        "icons": [
          {
            "height": 274,
            "url": "https://t.scdn.co/media/original/hip-274_0a661854d61e29eace5fe63f73495e68_274x274.jpg",
            "width": 274
          }
        ],
        "id": "hiphop",
        "name": "Hip Hop"
      },
      {
        "href": "https://api.spotify.com/v1/browse/categories/rock",
        "icons": [
          {
            "height": 274,
            "url": "https://t.scdn.co/media/derived/rock_9ce79e0a4ef901bbd10494f5b855d3cc_0_0_274_274.jpg",
            "width": 274
          }
        ],
        "id": "rock",
        "name": "Rock"
      },
      {
        "href": "https://api.spotify.com/v1/browse/categories/country",
        "icons": [
          {
            "height": null,
            "url": "https://t.scdn.co/images/a2e0ebe2ebed4566ba1d8236b869241f.jpeg",
            "width": null
          }
        ],
        "id": "country",
        "name": "Country"
      },
      {
        "href": "https://api.spotify.com/v1/browse/categories/latin",
        "icons": [
          {
            "height": null,
            "url": "https://t.scdn.co/images/26a60378-a374-4cd7-b894-28efa5e154cb.jpg",
            "width": null
          }
        ],
        "id": "latin",
        "name": "Latin"
      },
      {
        "href": "https://api.spotify.com/v1/browse/categories/mood",
        "icons": [
          {
            "height": 274,
            "url": "https://t.scdn.co/media/original/mood-274x274_976986a31ac8c49794cbdc7246fd5ad7_274x274.jpg",
            "width": 274
          }
        ],
        "id": "mood",
        "name": "Mood"
      },
      {
        "href": "https://api.spotify.com/v1/browse/categories/edm_dance",
        "icons": [
          {
            "height": 274,
            "url": "https://t.scdn.co/media/derived/edm-274x274_0ef612604200a9c14995432994455a6d_0_0_274_274.jpg",
            "width": 274
          }
        ],
        "id": "edm_dance",
        "name": "Dance/Electronic"
      },
      {
        "href": "https://api.spotify.com/v1/browse/categories/workout",
        "icons": [
          {
            "height": null,
            "url": "https://t.scdn.co/media/links/workout-274x274.jpg",
            "width": null
          }
        ],
        "id": "workout",
        "name": "Workout"
      },
      {
        "href": "https://api.spotify.com/v1/browse/categories/indie_alt",
        "icons": [
          {
            "height": null,
            "url": "https://t.scdn.co/images/fe06caf056474bc58862591cd60b57fc.jpeg",
            "width": null
          }
        ],
        "id": "indie_alt",
        "name": "Indie"
      },
      {
        "href": "https://api.spotify.com/v1/browse/categories/rnb",
        "icons": [
          {
            "height": 274,
            "url": "https://t.scdn.co/media/derived/r-b-274x274_fd56efa72f4f63764b011b68121581d8_0_0_274_274.jpg",
            "width": 274
          }
        ],
        "id": "rnb",
        "name": "R&B"
      },
      {
        "href": "https://api.spotify.com/v1/browse/categories/focus",
        "icons": [
          {
            "height": 274,
            "url": "https://t.scdn.co/media/original/genre-images-square-274x274_5e50d72b846a198fcd2ca9b3aef5f0c8_274x274.jpg",
            "width": 274
          }
        ],
        "id": "focus",
        "name": "Focus"
      },
      {
        "href": "https://api.spotify.com/v1/browse/categories/equal",
        "icons": [
          {
            "height": null,
            "url": "https://t.scdn.co/images/084155aeaa724ea1bd393a017d67b709",
            "width": null
          }
        ],
        "id": "equal",
        "name": "EQUAL"
      },
      {
        "href": "https://api.spotify.com/v1/browse/categories/aapi_heritage_month",
        "icons": [
          {
            "height": null,
            "url": "https://t.scdn.co/images/1cb1645764164ebaa123c424e2c48f94",
            "width": null
          }
        ],
        "id": "aapi_heritage_month",
        "name": "Stop Asian Hate"
      },
      {
        "href": "https://api.spotify.com/v1/browse/categories/gaming",
        "icons": [
          {
            "height": null,
            "url": "https://t.scdn.co/images/0d39395309ba47838ef12ce987f19d16.jpeg",
            "width": null
          }
        ],
        "id": "gaming",
        "name": "Gaming"
      },
      {
        "href": "https://api.spotify.com/v1/browse/categories/chill",
        "icons": [
          {
            "height": 274,
            "url": "https://t.scdn.co/media/derived/chill-274x274_4c46374f007813dd10b37e8d8fd35b4b_0_0_274_274.jpg",
            "width": 274
          }
        ],
        "id": "chill",
        "name": "Chill"
      },
      {
        "href": "https://api.spotify.com/v1/browse/categories/inspirational",
        "icons": [
          {
            "height": null,
            "url": "https://t.scdn.co/images/6359655809534407b31a728fe262dc3a.jpeg",
            "width": null
          }
        ],
        "id": "inspirational",
        "name": "Christian"
      },
      {
        "href": "https://api.spotify.com/v1/browse/categories/party",
        "icons": [
          {
            "height": null,
            "url": "https://t.scdn.co/images/7ee6530d5b3c4acc9a0957046bf11d63",
            "width": null
          }
        ],
        "id": "party",
        "name": "Party"
      },
      {
        "href": "https://api.spotify.com/v1/browse/categories/decades",
        "icons": [
          {
            "height": null,
            "url": "https://t.scdn.co/images/b611cf5145764c64b80e91ccd5f357c8",
            "width": null
          }
        ],
        "id": "decades",
        "name": "Decades"
      },
      {
        "href": "https://api.spotify.com/v1/browse/categories/romance",
        "icons": [
          {
            "height": 274,
            "url": "https://t.scdn.co/media/derived/romance-274x274_8100794c94847b6d27858bed6fa4d91b_0_0_274_274.jpg",
            "width": 274
          }
        ],
        "id": "romance",
        "name": "Romance"
      }
    ],
    "limit": 20,
    "next": "https://api.spotify.com/v1/browse/categories?offset=20&limit=20",
    "offset": 0,
    "previous": null,
    "total": 55
  }
}