{
  "tracks": {
    "href": "https://api.spotify.com/v1/search?query=hazel+english&type=track&offset=0&limit=1",
    "items": [
      {
        "album": {
          "album_type": "album",
          "artists": [
            {
              "external_urls": {
                "spotify": "https://open.spotify.com/artist/1nEGjL7aMVdNQzsfQPKdGr"
              },
              "href": "https://api.spotify.com/v1/artists/1nEGjL7aMVdNQzsfQPKdGr",
              "id": "1nEGjL7aMVdNQzsfQPKdGr",
              "name": "Hazel English",
              "type": "artist",
              "uri": "spotify:artist:1nEGjL7aMVdNQzsfQPKdGr"
            }
          ],
          "available_markets": [
            "AG",
            "BB",
            "BS",
            "BZ",
            "CA",
            "CR",
            "DM",
            "DO",
            "GD",
            "GT",
            "HN",
            "HT",
            "JM",
            "KN",
            "LC",
            "MX",
            "NI",
            "PA",
            "SV",
            "TT",
            "US",
            "VC"
          ],
          "external_urls": {
            "spotify": "https://open.spotify.com/album/4tKnS9Q0lgN3i7SmXi4mGI"
          },
          "href": "https://api.spotify.com/v1/albums/4tKnS9Q0lgN3i7SmXi4mGI",
          "id": "4tKnS9Q0lgN3i7SmXi4mGI",
          "images": [
            {
              "height": 640,
              "url": "https://i.scdn.co/image/ab67616d0000b273f0a4bb4b2fc663b082f9fd9f",
              "width": 640
            },
            {
              "height": 300,
              "url": "https://i.scdn.co/image/ab67616d00001e02f0a4bb4b2fc663b082f9fd9f",
              "width": 300
            },
            {
              "height": 64,
              "url": "https://i.scdn.co/image/ab67616d00004851f0a4bb4b2fc663b082f9fd9f",
              "width": 64
            }
          ],
          "name": "Just Give In / Never Going Home",
          "release_date": "2017-05-26",
          "release_date_precision": "day",
          "total_tracks": 11,
          "type": "album",
          "uri": "spotify:album:4tKnS9Q0lgN3i7SmXi4mGI"
        },
        "artists": [
          {
            "external_urls": {
              "spotify": "https://open.spotify.com/artist/1nEGjL7aMVdNQzsfQPKdGr"
            },
            "href": "https://api.spotify.com/v1/artists/1nEGjL7aMVdNQzsfQPKdGr",
            "id": "1nEGjL7aMVdNQzsfQPKdGr",
            "name": "Hazel English",
            "type": "artist",
            "uri": "spotify:artist:1nEGjL7aMVdNQzsfQPKdGr"
          }
        ],
        "available_markets": [
          "AG",
          "BB",
          "BS",
          "BZ",
          "CA",
          "CR",
          "DM",
          "DO",
          "GD",
          "GT",
          "HN",
          "HT",
          "JM",
          "KN",
          "LC",
          "MX",
          "NI",
          "PA",
          "SV",
          "TT",
          "US",
          "VC"
        ],
        "disc_number": 1,
        "duration_ms": 236666,
        "explicit": false,
        "external_ids": {
          "isrc": "GBX721600136"
        },
        "external_urls": {
          "spotify": "https://open.spotify.com/track/4iq4RFWmQc3zFgBgyrpahF"
        },
        "href": "https://api.spotify.com/v1/tracks/4iq4RFWmQc3zFgBgyrpahF",
        "id": "4iq4RFWmQc3zFgBgyrpahF",
        "is_local": false,
        "name": "Never Going Home",
        "popularity": 48,
        "preview_url": "https://p.scdn.co/mp3-preview/88dce0c80171cf5f53b2eeafd2487d64e62d0d15?cid=774b29d4f13844c495f206cafdad9c86",
        "track_number": 6,
        "type": "track",
        "uri": "spotify:track:4iq4RFWmQc3zFgBgyrpahF"
      }
    ],
    "limit": 1,
    "next": "https://api.spotify.com/v1/search?query=hazel+english&type=track&offset=1&limit=1",
    "offset": 0,
    "previous": null,
    "total": 109
  }
}