{
  "href": "https://api.spotify.com/v1/playlists/3cEYpjA9oz9GiPac4AsH4n/tracks?offset=0&limit=2",
  "items": [
    {
      "added_at": "2015-01-15T12:39:22Z",
      "added_by": {
        "external_urls": {
          "spotify": "https://open.spotify.com/user/jmperezperez"
        },
        "href": "https://api.spotify.com/v1/users/jmperezperez",
        "id": "jmperezperez",
        "type": "user",
        "uri": "spotify:user:jmperezperez"
      },
      "is_local": false,
      "primary_color": null,
      "track": {
        "album": {
          "album_type": "album",
          "artists": [
            {
              "external_urls": {
                "spotify": "https://open.spotify.com/artist/5I8r2w4hf7OYp2cunjihxJ"
              },
              "href": "https://api.spotify.com/v1/artists/5I8r2w4hf7OYp2cunjihxJ",
              "id": "5I8r2w4hf7OYp2cunjihxJ",
              "name": "Kularis",
              "type": "artist",
              "uri": "spotify:artist:5I8r2w4hf7OYp2cunjihxJ"
            }
          ],
          "available_markets": [
            "AD",
            "AE",
            "AG",
            "AL",
            "AM",
            "AO",
            "AR",
            "AT",
            "AU",
            "AZ",
            "BA",
            "BB",
            "BD",
            "BE",
            "BF",
            "BG",
            "BH",
            "BI",
            "BJ",
            "BN",
            "BO",
            "BR",
            "BS",
            "BT",
            "BW",
            "BY",
            "BZ",
            "CA",
            "CH",
            "CI",
            "CL",
            "CM",
            "CO",
            "CR",
            "CV",
            "CY",
            "CZ",
            "DE",
            "DJ",
            "DK",
            "DM",
            "DO",
            "DZ",
            "EC",
            "EE",
            "EG",
            "ES",
            "FI",
            "FJ",
            "FM",
            "FR",
            "GA",
            "GB",
            "GD",
            "GE",
            "GH",
            "GM",
            "GN",
            "GQ",
            "GR",
            "GT",
            "GW",
            "GY",
            "HK",
            "HN",
            "HR",
            "HT",
            "HU",
            "ID",
            "IE",
            "IL",
            "IN",
            "IS",
            "IT",
            "JM",
            "JO",
            "JP",
            "KE",
            "KG",
            "KH",
            "KI",
            "KM",
            "KN",
            "KR",
            "KW",
            "KZ",
            "LA",
            "LB",
            "LC",
            "LI",
            "LK",
            "LR",
            "LS",
            "LT",
            "LU",
            "LV",
            "MA",
            "MC",
            "MD",
            "ME",
            "MG",
            "MH",
            "MK",
            "ML",
            "MN",
            "MO",
            "MR",
            "MT",
            "MU",
            "MV",
            "MW",
            "MX",
            "MY",
            "MZ",
            "NA",
            "NE",
            "NG",
            "NI",
            "NL",
            "NO",
            "NP",
            "NR",
            "NZ",
            "OM",
            "PA",
            "PE",
            "PG",
            "PH",
            "PK",
            "PL",
            "PS",
            "PT",
            "PW",
            "PY",
            "QA",
            "RO",
            "RS",
            "RU",
            "RW",
            "SA",
            "SB",
            "SC",
            "SE",
            "SG",
            "SI",
            "SK",
            "SL",
            "SM",
            "SN",
            "SR",
            "ST",
            "SV",
            "SZ",
            "TD",
            "TG",
            "TH",
            "TL",
            "TN",
            "TO",
            "TR",
            "TT",
            "TV",
            "TW",
            "TZ",
            "UA",
            "UG",
            "US",
            "UY",
            "UZ",
            "VC",
            "VN",
            "VU",
            "WS",
            "XK",
            "ZA",
            "ZM",
            "ZW"
          ],
          "external_urls": {
            "spotify": "https://open.spotify.com/album/2pANdqPvxInB0YvcDiw4ko"
          },
          "href": "https://api.spotify.com/v1/albums/2pANdqPvxInB0YvcDiw4ko",
          "id": "2pANdqPvxInB0YvcDiw4ko",
          "images": [
            {
              "height": 640,
              "url": "https://i.scdn.co/image/ab67616d0000b273ce6d0eef0c1ce77e5f95bbbc",
              "width": 640
            },
            {
              "height": 300,
              "url": "https://i.scdn.co/image/ab67616d00001e02ce6d0eef0c1ce77e5f95bbbc",
              "width": 300
            },
            {
              "height": 64,
              "url": "https://i.scdn.co/image/ab67616d00004851ce6d0eef0c1ce77e5f95bbbc",
              "width": 64
            }
          ],
          "name": "Progressive Psy Trance Picks Vol.8",
          "release_date": "2012-04-02",
          "release_date_precision": "day",
          "total_tracks": 20,
          "type": "album",
          "uri": "spotify:album:2pANdqPvxInB0YvcDiw4ko"
        },
        "artists": [
          {
            "external_urls": {
              "spotify": "https://open.spotify.com/artist/6eSdhw46riw2OUHgMwR8B5"
            },
            "href": "https://api.spotify.com/v1/artists/6eSdhw46riw2OUHgMwR8B5",
            "id": "6eSdhw46riw2OUHgMwR8B5",
            "name": "Odiseo",
            "type": "artist",
            "uri": "spotify:artist:6eSdhw46riw2OUHgMwR8B5"
          }
        ],
        "available_markets": [
          "AD",
          "AE",
          "AG",
          "AL",
          "AM",
          "AO",
          "AR",
          "AT",
          "AU",
          "AZ",
          "BA",
          "BB",
          "BD",
          "BE",
          "BF",
          "BG",
          "BH",
          "BI",
          "BJ",
          "BN",
          "BO",
          "BR",
          "BS",
          "BT",
          "BW",
          "BY",
          "BZ",
          "CA",
          "CH",
          "CI",
          "CL",
          "CM",
          "CO",
          "CR",
          "CV",
          "CY",
          "CZ",
          "DE",
          "DJ",
          "DK",
          "DM",
          "DO",
          "DZ",
          "EC",
          "EE",
          "EG",
          "ES",
          "FI",
          "FJ",
          "FM",
          "FR",
          "GA",
          "GB",
          "GD",
          "GE",
          "GH",
          "GM",
          "GN",
          "GQ",
          "GR",
          "GT",
          "GW",
          "GY",
          "HK",
          "HN",
          "HR",
          "HT",
          "HU",
          "ID",
          "IE",
          "IL",
          "IN",
          "IS",
          "IT",
          "JM",
          "JO",
          "JP",
          "KE",
          "KG",
          "KH",
          "KI",
          "KM",
          "KN",
          "KR",
          "KW",
          "KZ",
          "LA",
          "LB",
          "LC",
          "LI",
          "LK",
          "LR",
          "LS",
          "LT",
          "LU",
          "LV",
          "MA",
          "MC",
          "MD",
          "ME",
          "MG",
          "MH",
          "MK",
          "ML",
          "MN",
          "MO",
          "MR",
          "MT",
          "MU",
          "MV",
          "MW",
          "MX",
          "MY",
          "MZ",
          "NA",
          "NE",
          "NG",
          "NI",
          "NL",
          "NO",
          "NP",
          "NR",
          "NZ",
          "OM",
          "PA",
          "PE",
          "PG",
          "PH",
          "PK",
          "PL",
          "PS",
          "PT",
          "PW",
          "PY",
          "QA",
          "RO",
          "RS",
          "RU",
          "RW",
          "SA",
          "SB",
          "SC",
          "SE",
          "SG",
          "SI",
          "SK",
          "SL",
          "SM",
          "SN",
          "SR",
          "ST",
          "SV",
          "SZ",
          "TD",
          "TG",
          "TH",
          "TL",
          "TN",
          "TO",
          "TR",
          "TT",
          "TV",
          "TW",
          "TZ",
          "UA",
          "UG",
          "US",
          "UY",
          "UZ",
          "VC",
          "VN",
          "VU",
          "WS",
          "XK",
          "ZA",
          "ZM",
          "ZW"
        ],
        "disc_number": 1,
        "duration_ms": 376000,
        "episode": false,
        "explicit": false,
        "external_ids": {
          "isrc": "DEKC41200989"
        },
        "external_urls": {
          "spotify": "https://open.spotify.com/track/4rzfv0JLZfVhOhbSQ8o5jZ"
        },
        "href": "https://api.spotify.com/v1/tracks/4rzfv0JLZfVhOhbSQ8o5jZ",
        "id": "4rzfv0JLZfVhOhbSQ8o5jZ",
        "is_local": false,
        "name": "Api",
        "popularity": 2,
        "preview_url": "https://p.scdn.co/mp3-preview/c440fa9ff320fb74629f8477bff45b1a377897ab?cid=774b29d4f13844c495f206cafdad9c86",
        "track": true,
        "track_number": 10,
        "type": "track",
        "uri": "spotify:track:4rzfv0JLZfVhOhbSQ8o5jZ"
      },
      "video_thumbnail": {
        "url": null
      }
    },
    {
      "added_at": "2015-01-15T12:40:03Z",
      "added_by": {
        "external_urls": {
          "spotify": "https://open.spotify.com/user/jmperezperez"
        },
        "href": "https://api.spotify.com/v1/users/jmperezperez",
        "id": "jmperezperez",
        "type": "user",
        "uri": "spotify:user:jmperezperez"
      },
      "is_local": false,
      "primary_color": null,
      "track": {
        "album": {
          "album_type": "compilation",
          "artists": [
            {
              "external_urls": {
                "spotify": "https://open.spotify.com/artist/0LyfQWJT6nXafLPZqxe9Of"
              },
              "href": "https://api.spotify.com/v1/artists/0LyfQWJT6nXafLPZqxe9Of",
              "id": "0LyfQWJT6nXafLPZqxe9Of",
              "name": "Various Artists",
              "type": "artist",
              "uri": "spotify:artist:0LyfQWJT6nXafLPZqxe9Of"
            }
          ],
          "available_markets": [],
          "external_urls": {
            "spotify": "https://open.spotify.com/album/6nlfkk5GoXRL1nktlATNsy"
          },
          "href": "https://api.spotify.com/v1/albums/6nlfkk5GoXRL1nktlATNsy",
          "id": "6nlfkk5GoXRL1nktlATNsy",
          "images": [
            {
              "height": 640,
              "url": "https://i.scdn.co/image/ab67616d0000b273aa2ff29970d9a63a49dfaeb2",
              "width": 640
            },
            {
              "height": 300,
              "url": "https://i.scdn.co/image/ab67616d00001e02aa2ff29970d9a63a49dfaeb2",
              "width": 300
            },
            {
              "height": 64,
              "url": "https://i.scdn.co/image/ab67616d00004851aa2ff29970d9a63a49dfaeb2",
              "width": 64
            }
          ],
          "name": "Wellness & Dreaming Source",
          "release_date": "2015-01-09",
          "release_date_precision": "day",
          "total_tracks": 25,
          "type": "album",
          "uri": "spotify:album:6nlfkk5GoXRL1nktlATNsy"
        },
        "artists": [
          {
            "external_urls": {
              "spotify": "https://open.spotify.com/artist/5VQE4WOzPu9h3HnGLuBoA6"
            },
            "href": "https://api.spotify.com/v1/artists/5VQE4WOzPu9h3HnGLuBoA6",
            "id": "5VQE4WOzPu9h3HnGLuBoA6",
            "name": "Vlasta Marek",
            "type": "artist",
            "uri": "spotify:artist:5VQE4WOzPu9h3HnGLuBoA6"
          }
        ],
        "available_markets": [],
        "disc_number": 1,
        "duration_ms": 730066,
        "episode": false,
        "explicit": false,
        "external_ids": {
          "isrc": "FR2X41475057"
        },
        "external_urls": {
          "spotify": "https://open.spotify.com/track/5o3jMYOSbaVz3tkgwhELSV"
        },
        "href": "https://api.spotify.com/v1/tracks/5o3jMYOSbaVz3tkgwhELSV",
        "id": "5o3jMYOSbaVz3tkgwhELSV",
        "is_local": false,
        "name": "Is",
        "popularity": 0,
        "preview_url": null,
        "track": true,
        "track_number": 21,
        "type": "track",
        "uri": "spotify:track:5o3jMYOSbaVz3tkgwhELSV"
      },
      "video_thumbnail": {
        "url": null
      }
    }
  ],
  "limit": 2,
  "next": "https://api.spotify.com/v1/playlists/3cEYpjA9oz9GiPac4AsH4n/tracks?offset=2&limit=2",
  "offset": 0,
  "previous": null,
  "total": 5
}